…
    ℹ Use `spec()` to retrieve the full column specification for this data.
    ℹ Specify the column types or set `show_col_types = FALSE` to quiet this message.
    ```
    :::
    
    ```{.r .cell-code}
    df
    ```
    
    ::: {.cell-output .cell-output-stdout}
    ```
    # A tibble: 30 × 2
       Horas Suspensos
       <dbl>     <dbl>
     1   3.5         1
     2   0.6         5
     3   2.8         1
     4   2.5         3
     5   2.6         1
     6   3.9         0
     7   1.5         3
     8   0.7         3
     9   3.6         1
    10   3.7         1
    # ℹ 20 more rows
    ```
…
    ℹ Use `spec()` to retrieve the full column specification for this data.
    ℹ Specify the column types or set `show_col_types = FALSE` to quiet this message.
    ```
    :::
    
    ```{.r .cell-code}
    df
    ```
    
    ::: {.cell-output .cell-output-stdout}
    ```
    # A tibble: 76 × 2
         Año   PIB
       <dbl> <dbl>
     1  1947  244.
     2  1948  267.
     3  1949  276.
     4  1950  282.
     5  1951  338.
     6  1952  362.
     7  1953  390.
     8  1954  387.
     9  1955  415.
    10  1956  443.
    # ℹ 66 more rows
    ```
…
    ℹ Use `spec()` to retrieve the full column specification for this data.
    ℹ Specify the column types or set `show_col_types = FALSE` to quiet this message.
    ```
    :::
    
    ```{.r .cell-code}
    df
    ```
    
    ::: {.cell-output .cell-output-stdout}
    ```
    # A tibble: 40 × 3
        dias peso.perdido ejercicio
       <dbl>        <dbl> <chr>    
     1    14         2.95 no       
     2    18         5.65 no       
     3    22         6.56 no       
     4    26         3.56 no       
     5    30         6.17 no       
     6    34         9.4  no       
     7    38        12.4  no       
     8    42        12.9  no       
     9    46        13.9  no       
    10    50        10.8  no       
    # ℹ 30 more rows
    ```
…
