3 Preprocesamiento de datos – Prácticas de Estadística con R
…
df <- read_csv("https://aprendeconalf.es/estadistica-practicas-r/datos/notas-curso2.csv")

Rows: 120 Columns: 9
── Column specification ────────────────────────────────────────────────────────
Delimiter: ","
chr (4): sexo, turno, grupo, trabaja
dbl (5): notaA, notaB, notaC, notaD, notaE

ℹ Use `spec()` to retrieve the full column specification for this data.
ℹ Specify the column types or set `show_col_types = FALSE` to quiet this message.

df

# A tibble: 120 × 9
   sexo   turno  grupo trabaja notaA notaB notaC notaD notaE
   <chr>  <chr>  <chr> <chr>   <dbl> <dbl> <dbl> <dbl> <dbl>
 1 Mujer  Tarde  C     N         5.2   6.3   3.4   2.3   2  
 2 Hombre Mañana A     N         5.7   5.7   4.2   3.5   2.7
 3 Hombre Mañana B     N         8.3   8.8   8.8   8     5.5
 4 Hombre Mañana B     N         6.1   6.8   4     3.5   2.2
 5 Hombre Mañana A     N         6.2   9     5     4.4   3.7
 6 Hombre Mañana A     S         8.6   8.9   9.5   8.4   3.9
 7 Mujer  Mañana A     N         6.7   7.9   5.6   4.8   4.2
 8 Mujer  Tarde  C     S         4.1   5.2   1.7   0.3   1  
 9 Hombre Tarde  C     N         5     5     3.3   2.7   6  
10 Hombre Tarde  C     N         5.3   6.3   4.8   3.6   2.3
# ℹ 110 more rows

Convertir el data frame a formato largo.

Solución

Para convertir un data frame de formato ancho a largo se puede usar la función pivot_longer del paquete tidyr de tidyverse.

df_largo <- df |> pivot_longer(notaA:notaE, names_to = "Asignatura", values_to = "Nota")
df_largo

# A tibble: 600 × 6
   sexo   turno  grupo trabaja Asignatura  Nota
   <chr>  <chr>  <chr> <chr>   <chr>      <dbl>
 1 Mujer  Tarde  C     N       notaA        5.2
 2 Mujer  Tarde  C     N       notaB        6.3
 3 Mujer  Tarde  C     N       notaC        3.4
 4 Mujer  Tarde  C     N       notaD        2.3
 5 Mujer  Tarde  C     N       notaE        2  
 6 Hombre Mañana A     N       notaA        5.7
 7 Hombre Mañana A     N       notaB        5.7
 8 Hombre Mañana A     N       notaC        4.2
 9 Hombre Mañana A     N       notaD        3.5
10 Hombre Mañana A     N       notaE        2.7
# ℹ 590 more rows

Crear una nueva columna con la variable calificación que contenga las calificaciones de cada asignatura.

Solución

df_largo <- df_largo |>
    mutate(Califiación = cut(Nota, breaks = c(0, 4.99, 6.99, 8.99, 10), labels = c("SS", "AP", "NT", "SB")))
df_largo

# A tibble: 600 × 7
   sexo   turno  grupo trabaja Asignatura  Nota Califiación
   <chr>  <chr>  <chr> <chr>   <chr>      <dbl> <fct>      
 1 Mujer  Tarde  C     N       notaA        5.2 AP         
 2 Mujer  Tarde  C     N       notaB        6.3 AP         
 3 Mujer  Tarde  C     N       notaC        3.4 SS         
 4 Mujer  Tarde  C     N       notaD        2.3 SS         
 5 Mujer  Tarde  C     N       notaE        2   SS         
 6 Hombre Mañana A     N       notaA        5.7 AP         
 7 Hombre Mañana A     N       notaB        5.7 AP         
 8 Hombre Mañana A     N       notaC        4.2 SS         
 9 Hombre Mañana A     N       notaD        3.5 SS         
10 Hombre Mañana A     N       notaE        2.7 SS         
# ℹ 590 more rows

Filtrar el conjunto de datos para obtener las asignaturas y las notas de las mujeres del grupo A, ordenadas de mayor a menor.

Solución

df_largo |>
    filter(sexo == "Mujer", grupo == "A") |>
    select(Asignatura, Nota) |>
    arrange(desc(Nota))

# A tibble: 75 × 2
   Asignatura  Nota
   <chr>      <dbl>
 1 notaB        9.2
 2 notaE        9.2
 3 notaB        8.8
 4 notaB        8.6
 5 notaB        8.6
 6 notaA        8.3
 7 notaB        8.2
 8 notaB        8.1
 9 notaA        8  
10 notaB        8  
# ℹ 65 more rows
…
