Prácticas de Estadística con R - 5 Regresión
…
La recta de regresión de \(X\) sobre \(Y\) es \(x = -0.6666667 + 0.3333333 x\), que es la misma que la recta de \(Y\) sobre \(X\), ya que el ajuste es perfecto, y tanto los residuos en \(Y\) como los residuos en \(X\) valen cero para esta recta.

Ejercicio 5.2 El fichero horas-estudio.csv contiene información sobre las horas de estudio diarias de una muestra de alumnos de ingeniería, y el número de asignaturas suspendidas al final del curso.

Crear un data frame con los datos de las horas de estudio y los suspensos a partir del fichero horas-estudio.csv.

Solución

library(readr)
df <- read_csv("https://aprendeconalf.es/estadistica-practicas-r/datos/horas-estudio.csv")
df

# A tibble: 30 × 2
   Horas Suspensos
   <dbl>     <dbl>
 1   3.5         1
 2   0.6         5
 3   2.8         1
 4   2.5         3
 5   2.6         1
 6   3.9         0
 7   1.5         3
 8   0.7         3
 9   3.6         1
10   3.7         1
# ℹ 20 more rows
…
Aunque el coeficiente de determinación lineal está próximo a 1, el tamaño muestral es demasiado pequeño para que la predicción sea fiable.

Ejercicio 5.4 El fichero pib-usa.csv contiene información sobre el producto interior bruto de Estados Unidos en billones de dólares americanos desde 1947 hasta 2022.

Crear un data frame con los datos del PIB y los años a partir del fichero pib-usa.csv.

Solución

library(readr)
df <- read_csv("https://aprendeconalf.es/estadistica-practicas-r/datos/pib-usa.csv")
df

# A tibble: 76 × 2
     Año   PIB
   <dbl> <dbl>
 1  1947  244.
 2  1948  267.
 3  1949  276.
 4  1950  282.
 5  1951  338.
 6  1952  362.
 7  1953  390.
 8  1954  387.
 9  1955  415.
10  1956  443.
# ℹ 66 more rows
…
       1 
2026.528 

Ejercicio 5.5 El fichero dieta.csv contiene información sobre el los kilos perdidos con una dieta de adelgazamiento.

Crear un data frame con los datos de la dieta a partir del fichero dieta.csv.

Solución

library(readr)
df <- read_csv("https://aprendeconalf.es/estadistica-practicas-r/datos/dieta.csv")
df

# A tibble: 40 × 3
    dias peso.perdido ejercicio
   <dbl>        <dbl> <chr>    
 1    14         2.95 no       
 2    18         5.65 no       
 3    22         6.56 no       
 4    26         3.56 no       
 5    30         6.17 no       
 6    34         9.4  no       
 7    38        12.4  no       
 8    42        12.9  no       
 9    46        13.9  no       
10    50        10.8  no       
# ℹ 30 more rows
…
